aiocontextvars==0.2.2
amqp==1.4.9
anyjson==0.3.3
asgiref==3.3.1
billiard==3.3.0.23
celery==3.1.26.post2
certifi==2020.12.5
cffi==1.14.5
chardet==4.0.0
click==7.1.2
contextvars==2.4
cryptography==3.4.6
decorator==4.4.2
Django==3.1.7
django-celery==3.3.1
django-cors-headers==3.7.0
django-rest-knox==4.1.0
djangorestframework==3.12.2
djangorestframework-jwt==1.11.0
djangorestframework-simplejwt==4.4.0
dynaconf==3.1.4
generics==3.3.0
hvac==0.10.8
idna==2.10
immutables==0.15
knox==0.1.11
kombu==3.0.37
loguru==0.5.3
Pillow==8.1.2
pycparser==2.20
PyJWT==1.7.1
python-decouple==3.4
pytz==2021.1
razorpay==1.2.0
requests==2.25.1
shortuuid==1.0.1
six==1.15.0
sqlparse==0.4.1
urllib3==1.26.4
validators==0.18.2

